<?xml version="1.0" encoding="utf-8"?>
<!DOCTYPE svg PUBLIC "-//W3C//DTD SVG 1.1//EN" "http://www.w3.org/Graphics/SVG/1.1/DTD/svg11.dtd">

<svg version="1.1" id="ebene1" xmlns="http://www.w3.org/2000/svg" xmlns:xlink="http://www.w3.org/1999/xlink" x="0px" y="0px"
	 viewBox="0 0 10 10" enable-background="new 0 0 10 10" xml:space="preserve">
<rect x="0" y="0" width="10" height="10" fill="none" />
<circle cx="3.75" cy="3.75" r="2.25" stroke="#0044CC" stroke-width="1.5" fill="transparent" />
<path fill="none" stroke="#0044CC" stroke-width="1.5" d="M5.25,5.25 L8.5,8.5"/>
</svg>
